build/simul_output.vcd
$date
  Sun Nov 10 13:11:18 2013
$end
$version
  GHDL v0
$end
$timescale
  1 fs
$end
$var reg 1 ! reset $end
$var reg 1 " clock $end
$var reg 1 # linea $end
$var reg 1 $ u $end
$scope module i_b02 $end
$var reg 1 % reset $end
$var reg 1 & clock $end
$var reg 1 ' linea $end
$var reg 1 ( u $end
$upscope $end
$enddefinitions $end
#0
0!
1"
0#
0$
0%
1&
0'
0(
#5000000
1!
0"
1%
0&
#10000000
0!
1"
0%
1&
#15000000
1!
0"
1%
0&
#20000000
0!
1"
0%
1&
#25000000
1!
0"
1%
0&
#30000000
0!
1"
0%
1&
#35000000
1!
0"
1%
0&
#40000000
0!
1"
0%
1&
#45000000
1!
0"
1%
0&
#50000000
0!
1"
0%
1&
#55000000
1!
0"
1%
0&
#60000000
0!
1"
0%
1&
#65000000
1!
0"
1%
0&
#70000000
0!
1"
0%
1&
#75000000
1!
0"
1%
0&
#80000000
0!
1"
0%
1&
#85000000
1!
0"
1%
0&
#90000000
0!
1"
0%
1&
#95000000
1!
0"
1%
0&
#100000000
0!
1"
0%
1&
#105000000
1!
0"
1%
0&
#110000000
0!
1"
0%
1&
#115000000
1!
0"
1%
0&
#120000000
0!
1"
0%
1&
#125000000
1!
0"
1%
0&
#130000000
0!
1"
0%
1&
#135000000
1!
0"
1%
0&
#140000000
0!
1"
0%
1&
#145000000
1!
0"
1%
0&
#150000000
0!
1"
0%
1&
#155000000
1!
0"
1%
0&
#160000000
0!
1"
0%
1&
#165000000
1!
0"
1%
0&
#170000000
0!
1"
0%
1&
#175000000
1!
0"
1%
0&
#180000000
0!
1"
0%
1&
#185000000
1!
0"
1%
0&
#190000000
0!
1"
0%
1&
#195000000
1!
0"
1%
0&
#200000000
0!
1"
0%
1&
